parity/Parity Generater & Checker/parchk.vcd
$date
  Fri Nov 25 14:39:06 2022
$end
$version
  GHDL v0
$end
$timescale
  1 fs
$end
$var reg 1 ! a $end
$var reg 1 " b $end
$var reg 1 # c $end
$var reg 1 $ d $end
$var reg 1 % epc $end
$var reg 1 & opc $end
$scope module parity_check $end
$var reg 1 ' a $end
$var reg 1 ( b $end
$var reg 1 ) c $end
$var reg 1 * d $end
$var reg 1 + epc $end
$var reg 1 , opc $end
$upscope $end
$enddefinitions $end
#0
0!
0"
0#
0$
0%
1&
0'
0(
0)
0*
0+
1,
#1000000
1$
1%
0&
1*
1+
0,
#2000000
1#
0$
1)
0*
#3000000
1$
0%
1&
1*
0+
1,
#4000000
1"
0#
0$
1%
0&
1(
0)
0*
1+
0,
#5000000
1$
0%
1&
1*
0+
1,
#6000000
1#
0$
1)
0*
#7000000
1$
1%
0&
1*
1+
0,
#8000000
1!
0"
0#
0$
1'
0(
0)
0*
#9000000
1$
0%
1&
1*
0+
1,
#10000000
1#
0$
1)
0*
#11000000
1$
1%
0&
1*
1+
0,
#12000000
1"
0#
0$
0%
1&
1(
0)
0*
0+
1,
#13000000
1$
1%
0&
1*
1+
0,
#14000000
1#
0$
1)
0*
#15000000
1$
0%
1&
1*
0+
1,
