half full sub/abc2.vcd
$date
  Sun Sep 04 16:07:44 2022
$end
$version
  GHDL v0
$end
$timescale
  1 fs
$end
$var reg 1 ! a $end
$var reg 1 " b $end
$var reg 1 # c $end
$var reg 1 $ s $end
$var reg 1 % br $end
$scope module fslfadder $end
$var reg 1 & a $end
$var reg 1 ' b $end
$var reg 1 ( c $end
$var reg 1 ) s $end
$var reg 1 * br $end
$upscope $end
$enddefinitions $end
#0
0!
0"
0#
0$
0%
0&
0'
0(
0)
0*
#1000000
1#
1%
1(
1*
#2000000
1"
0#
1$
1'
0(
1)
#3000000
1#
1(
#4000000
1!
0"
0#
0$
0%
1&
0'
0(
0)
0*
#5000000
1#
1(
#6000000
1"
0#
1'
0(
#7000000
1#
1%
1(
1*
